[
    {
        "_id": "b-05",
        "_parentId": "a-10",
        "_type": "block",
        "_classes": "",
        "title": "b-05",
        "displayTitle": "",
        "body": "",
        "_trackingId": 0
    },
    {
        "_id": "b-10",
        "_parentId": "a-10",
        "_type": "block",
        "_classes": "",
        "title": "b-10",
        "displayTitle": "",
        "body": "",
        "_trackingId": 1
    },
    {
        "_id": "b-20",
        "_parentId": "a-10",
        "_type": "block",
        "_classes": "",
        "title": "b-20",
        "displayTitle": "",
        "body": "",
        "_trackingId": 2
    },
    {
        "_id": "b-30",
        "_parentId": "a-10",
        "_type": "block",
        "_classes": "",
        "title": "b-30",
        "displayTitle": "",
        "body": "",
        "_trackingId": 3
    },
    {
        "_id": "b-35",
        "_parentId": "a-20",
        "_type": "block",
        "_classes": "",
        "title": "b-35",
        "displayTitle": "",
        "body": "",
        "_trackingId": 4
    },
    {
        "_id": "b-40",
        "_parentId": "a-20",
        "_type": "block",
        "_classes": "",
        "title": "b-40",
        "displayTitle": "",
        "body": "",
        "_trackingId": 5
    },
    {
        "_id": "b-60",
        "_parentId": "a-20",
        "_type": "block",
        "_classes": "",
        "title": "b-60",
        "displayTitle": "",
        "body": "",
        "_trackingId": 6
    },
    {
        "_id": "b-70",
        "_parentId": "a-20",
        "_type": "block",
        "_classes": "",
        "title": "b-70",
        "displayTitle": "",
        "body": "",
        "_trackingId": 7
    },
    {
        "_id": "b-80",
        "_parentId": "a-20",
        "_type": "block",
        "_classes": "",
        "title": "b-80",
        "displayTitle": "",
        "body": "",
        "_trackingId": 8
    },
    {
        "_id": "b-90",
        "_parentId": "a-20",
        "_type": "block",
        "_classes": "",
        "title": "b-90",
        "displayTitle": "",
        "body": "",
        "_trackingId": 9
    },
    {
        "_id": "b-120",
        "_parentId": "a-20",
        "_type": "block",
        "_classes": "",
        "title": "b-120",
        "displayTitle": "",
        "body": "",
        "_trackingId": 10
    },
    {
        "_id": "b-130",
        "_parentId": "a-20",
        "_type": "block",
        "_classes": "",
        "title": "b-130",
        "displayTitle": "",
        "body": "",
        "_trackingId": 11
    },
    {
        "_id": "b-160",
        "_parentId": "a-20",
        "_type": "block",
        "_classes": "",
        "title": "b-160",
        "displayTitle": "",
        "body": "",
        "_trackingId": 12
    },
    {
        "_id": "b-180",
        "_parentId": "a-20",
        "_type": "block",
        "_classes": "",
        "title": "b-180",
        "displayTitle": "",
        "body": "",
        "_trackingId": 13
    },
    {
        "_id": "b-250",
        "_parentId": "a-20",
        "_type": "block",
        "_classes": "",
        "title": "b-250",
        "displayTitle": "",
        "body": "",
        "_trackingId": 14
    },
    {
        "_id": "b-260",
        "_parentId": "a-30",
        "_type": "block",
        "_classes": "",
        "title": "b-260",
        "displayTitle": "",
        "body": "",
        "_trackingId": 15
    },
    {
        "_id": "b-270",
        "_parentId": "a-30",
        "_type": "block",
        "_classes": "",
        "title": "b-760",
        "displayTitle": "",
        "body": "",
        "_trackingId": 16
    },
    {
        "_id": "b-280",
        "_parentId": "a-30",
        "_type": "block",
        "_classes": "",
        "title": "b-280",
        "displayTitle": "",
        "body": "",
        "_trackingId": 17
    },
    {
        "_id": "b-290",
        "_parentId": "a-30",
        "_type": "block",
        "_classes": "",
        "title": "b-290",
        "displayTitle": "",
        "body": "",
        "_trackingId": 18
    },
    {
        "_id": "b-300",
        "_parentId": "a-30",
        "_type": "block",
        "_classes": "",
        "title": "b-300",
        "displayTitle": "",
        "body": "",
        "_trackingId": 19
    },
    {
        "_id": "b-310",
        "_parentId": "a-30",
        "_type": "block",
        "_classes": "",
        "title": "b-310",
        "displayTitle": "",
        "body": "",
        "_trackingId": 20
    },
    {
        "_id": "b-320",
        "_parentId": "a-30",
        "_type": "block",
        "_classes": "",
        "title": "b-320",
        "displayTitle": "",
        "body": "",
        "_trackingId": 21
    },
    {
        "_id": "b-325",
        "_parentId": "a-30",
        "_type": "block",
        "_classes": "",
        "title": "b-325",
        "displayTitle": "",
        "body": "",
        "_trackingId": 22
    },
    {
        "_id": "b-330",
        "_parentId": "a-30",
        "_type": "block",
        "_classes": "",
        "title": "b-330",
        "displayTitle": "",
        "body": "",
        "_trackingId": 23
    },
    {
        "_id": "b-340",
        "_parentId": "a-30",
        "_type": "block",
        "_classes": "",
        "title": "b-340",
        "displayTitle": "",
        "body": "",
        "_trackingId": 24
    },
    {
        "_id": "b-350",
        "_parentId": "a-30",
        "_type": "block",
        "_classes": "",
        "title": "b-350",
        "displayTitle": "",
        "body": "",
        "_trackingId": 25
    },
    {
        "_id": "b-360",
        "_parentId": "a-30",
        "_type": "block",
        "_classes": "",
        "title": "b-360",
        "displayTitle": "",
        "body": "",
        "_trackingId": 26
    },
    {
        "_id": "b-380",
        "_parentId": "a-30",
        "_type": "block",
        "_classes": "",
        "title": "b-380",
        "displayTitle": "",
        "body": "",
        "_trackingId": 27
    },
    {
        "_id": "b-400",
        "_parentId": "a-30",
        "_type": "block",
        "_classes": "",
        "title": "b-400",
        "displayTitle": "",
        "body": "",
        "_trackingId": 28
    },
    {
        "_id": "b-405",
        "_parentId": "a-40",
        "_type": "block",
        "_classes": "",
        "title": "b-405",
        "displayTitle": "",
        "body": "",
        "_trackingId": 29
    },
    {
        "_id": "b-410",
        "_parentId": "a-40",
        "_type": "block",
        "_classes": "",
        "title": "b-410",
        "displayTitle": "",
        "body": "",
        "_trackingId": 30
    },
    {
        "_id": "b-420",
        "_parentId": "a-40",
        "_type": "block",
        "_classes": "",
        "title": "b-420",
        "displayTitle": "",
        "body": "",
        "_trackingId": 31
    },
    {
        "_id": "b-430",
        "_parentId": "a-40",
        "_type": "block",
        "_classes": "",
        "title": "b-430",
        "displayTitle": "",
        "body": "",
        "_trackingId": 32
    },
    {
        "_id": "b-440",
        "_parentId": "a-40",
        "_type": "block",
        "_classes": "",
        "title": "b-440",
        "displayTitle": "",
        "body": "",
        "_trackingId": 33
    },
    {
        "_id": "b-450",
        "_parentId": "a-40",
        "_type": "block",
        "_classes": "",
        "title": "b-450",
        "displayTitle": "",
        "body": "",
        "_trackingId": 34
    },
    {
        "_id": "b-460",
        "_parentId": "a-40",
        "_type": "block",
        "_classes": "",
        "title": "b-460",
        "displayTitle": "",
        "body": "",
        "_trackingId": 35
    },
    {
        "_id": "b-465",
        "_parentId": "a-40",
        "_type": "block",
        "_classes": "",
        "title": "b-465",
        "displayTitle": "",
        "body": "",
        "_trackingId": 36
    },
    {
        "_id": "b-480",
        "_parentId": "a-40",
        "_type": "block",
        "_classes": "",
        "title": "b-480",
        "displayTitle": "",
        "body": "",
        "_trackingId": 37
    },
    {
        "_id": "b-490",
        "_parentId": "a-50",
        "_type": "block",
        "_classes": "",
        "title": "b-490",
        "displayTitle": "",
        "body": "",
        "_trackingId": 38
    },
    {
        "_id": "b-500",
        "_parentId": "a-50",
        "_type": "block",
        "_classes": "",
        "title": "b-500",
        "displayTitle": "",
        "body": "",
        "_trackingId": 39
    },
    {
        "_id": "b-520",
        "_parentId": "a-50",
        "_type": "block",
        "_classes": "",
        "title": "b-520",
        "displayTitle": "",
        "body": "",
        "_trackingId": 40
    },
    {
        "_id": "b-530",
        "_parentId": "a-50",
        "_type": "block",
        "_classes": "",
        "title": "b-530",
        "displayTitle": "",
        "body": "",
        "_trackingId": 41
    },
    {
        "_id": "b-540",
        "_parentId": "a-50",
        "_type": "block",
        "_classes": "",
        "title": "b-540",
        "displayTitle": "",
        "body": "",
        "_trackingId": 42
    },
    {
        "_id": "b-550",
        "_parentId": "a-50",
        "_type": "block",
        "_classes": "",
        "title": "b-550",
        "displayTitle": "",
        "body": "",
        "_trackingId": 43
    },
    {
        "_id": "b-555",
        "_parentId": "a-50",
        "_type": "block",
        "_classes": "",
        "title": "b-555",
        "displayTitle": "",
        "body": "",
        "_trackingId": 44
    },
    {
        "_id": "b-560",
        "_parentId": "a-60",
        "_type": "block",
        "_classes": "",
        "title": "b-560",
        "displayTitle": "",
        "body": "",
        "_trackingId": 45
    },
    {
        "_id": "b-570",
        "_parentId": "a-60",
        "_type": "block",
        "_classes": "",
        "title": "b-570",
        "displayTitle": "",
        "body": "",
        "_trackingId": 46
    },
    {
        "_id": "b-575",
        "_parentId": "a-60",
        "_type": "block",
        "_classes": "",
        "title": "b-570",
        "displayTitle": "",
        "body": "",
        "_trackingId": 47
    },
    {
        "_id": "b-580",
        "_parentId": "a-60",
        "_type": "block",
        "_classes": "",
        "title": "b-580",
        "displayTitle": "",
        "body": "",
        "_trackingId": 48
    },
    {
        "_id": "b-590",
        "_parentId": "a-70",
        "_type": "block",
        "_classes": "",
        "title": "b-590",
        "displayTitle": "",
        "body": "",
        "_trackingId": 49
    },
    {
        "_id": "b-600",
        "_parentId": "a-70",
        "_type": "block",
        "_classes": "",
        "title": "b-600",
        "displayTitle": "",
        "body": "",
        "_trackingId": 50
    },
    {
        "_id": "b-610",
        "_parentId": "a-70",
        "_type": "block",
        "_classes": "",
        "title": "b-610",
        "displayTitle": "",
        "body": "",
        "_trackingId": 51
    },
    {
        "_id": "b-620",
        "_parentId": "a-70",
        "_type": "block",
        "_classes": "",
        "title": "b-620",
        "displayTitle": "",
        "body": "",
        "_trackingId": 52
    },
    {
        "_id": "b-630",
        "_parentId": "a-70",
        "_type": "block",
        "_classes": "",
        "title": "b-630",
        "displayTitle": "",
        "body": "",
        "_trackingId": 53
    },
    {
        "_id": "b-640",
        "_parentId": "a-80",
        "_type": "block",
        "_classes": "",
        "title": "b-640",
        "displayTitle": "",
        "body": "",
        "_trackingId": 54
    },
    {
        "_id": "b-650",
        "_parentId": "a-80",
        "_type": "block",
        "_classes": "",
        "title": "b-650",
        "displayTitle": "",
        "body": "",
        "_trackingId": 55
    },
    {
        "_id": "b-660",
        "_parentId": "a-80",
        "_type": "block",
        "_classes": "",
        "title": "b-660",
        "displayTitle": "",
        "body": "",
        "_trackingId": 56
    },
    {
        "_id": "b-670",
        "_parentId": "a-80",
        "_type": "block",
        "_classes": "",
        "title": "b-670",
        "displayTitle": "",
        "body": "",
        "_trackingId": 57
    },
    {
        "_id": "b-680",
        "_parentId": "a-80",
        "_type": "block",
        "_classes": "",
        "title": "b-680",
        "displayTitle": "",
        "body": "",
        "_trackingId": 58
    },
    {
        "_id": "b-690",
        "_parentId": "a-80",
        "_type": "block",
        "_classes": "",
        "title": "b-690",
        "displayTitle": "",
        "body": "",
        "_trackingId": 59
    }
]